{
  "description": "Links dotfiles",
  "variables": {
    "files": [
      ".zsh",
      ".zshenv",
      ".zshrc",
      ".config/nvim",
      ".vim/.base16"
    ],
    "templates": [
      ".gitconfig.erb"
    ]
  }
}
